{
  "project_info": {
    "project_number": "510179519191",
    "firebase_url": "https://arkademi-g-login.firebaseio.com",
    "project_id": "arkademi-g-login",
    "storage_bucket": "arkademi-g-login.appspot.com"
  },
  "client": [
    {
      "client_info": {
        "mobilesdk_app_id": "1:510179519191:android:459f4d0f94d5351d",
        "android_client_info": {
          "package_name": "com.arkademi.app"
        }
      },
      "oauth_client": [
        {
          "client_id": "510179519191-ci7tp08fqotem6npb9bovk3g5kut3ddc.apps.googleusercontent.com",
          "client_type": 1,
          "android_info": {
            "package_name": "com.arkademi.app",
            "certificate_hash": "c92fecd38f18e179b197321c784d7ae491aa9bb4"
          }
        },
        {
          "client_id": "510179519191-uo18g10hiuj12d425cbc6bg868iuqvau.apps.googleusercontent.com",
          "client_type": 3
        }
      ],
      "api_key": [
        {
          "current_key": "AIzaSyBefKYvyElw4zSLxrAbzMkmiSxH4zxmBew"
        }
      ],
      "services": {
        "analytics_service": {
          "status": 1
        },
        "appinvite_service": {
          "status": 2,
          "other_platform_oauth_client": [
            {
              "client_id": "510179519191-uo18g10hiuj12d425cbc6bg868iuqvau.apps.googleusercontent.com",
              "client_type": 3
            }
          ]
        },
        "ads_service": {
          "status": 2
        }
      }
    }
  ],
  "configuration_version": "1"
}